<svg width="238" height="46" viewBox="0 0 238 46" fill="none" xmlns="http://www.w3.org/2000/svg">
<path d="M10.6296 45.0103C8.77703 44.9356 7.02531 44.1452 5.74155 42.8049C4.4578 41.4646 3.74167 39.6784 3.74329 37.8208V8.17869C3.74329 8.15677 3.74329 8.13485 3.74591 8.11249C3.74854 8.09014 3.74591 8.07699 3.7481 8.05901C3.75029 7.89419 3.7586 7.72323 3.77391 7.53692C3.78398 7.42733 3.79841 7.31774 3.81241 7.21517C3.82423 7.1253 3.83823 7.03281 3.85616 6.93286C3.87498 6.82458 3.89991 6.69702 3.92879 6.5677C3.93973 6.51817 3.95285 6.46863 3.96554 6.42085V6.41866L3.98173 6.35641C4.08576 5.96107 4.22335 5.57537 4.39298 5.20352L4.40304 5.18029C4.45117 5.07508 4.50104 4.96724 4.55529 4.86423C4.57979 4.81732 4.6056 4.77086 4.63054 4.72614L4.64804 4.69502C5.24005 3.64111 6.09242 2.75731 7.12337 2.12841C8.15432 1.4995 9.32926 1.14658 10.5355 1.10352C11.8712 1.19101 13.1697 1.58068 14.3334 2.24326L38.6861 15.8662C39.9531 16.5752 41.0083 17.6101 41.7429 18.8641C42.4775 20.1181 42.8648 21.5459 42.8648 22.9999C42.8648 24.454 42.4775 25.8817 41.7429 27.1358C41.0083 28.3898 39.9531 29.4247 38.6861 30.1336L13.0944 44.4492C12.3149 44.7885 11.4789 44.9788 10.6296 45.0103ZM29.4858 17.006V28.9935H31.9997L32.0058 19.1974C32.0052 18.617 31.775 18.0605 31.3658 17.6497C30.9565 17.2389 30.4015 17.0073 29.8223 17.0056L29.4858 17.006ZM19.6324 17.0498V28.9935H24.266C25.7172 28.9935 26.891 28.5796 27.6562 27.7963C27.9653 27.4754 28.2069 27.0956 28.3667 26.6794C28.5266 26.2632 28.6014 25.8191 28.5868 25.3735C28.5513 23.9242 27.8763 22.9839 26.58 22.5789C27.756 21.9349 28.2031 20.8693 27.9082 19.4148C27.7633 18.7904 27.4038 18.2369 26.8928 17.8512C26.1153 17.2928 25.1741 17.0103 24.2183 17.0485H19.632L19.6324 17.0498ZM7.54955 17.0345L12.2356 28.9895H12.9859C13.402 28.9834 13.8059 28.8482 14.1421 28.6025C14.4783 28.3569 14.7302 28.0129 14.8632 27.6179C15.859 25.0456 18.8782 17.3633 19.0064 17.0376V17.0349H16.5126L13.5376 24.6239L10.5683 17.0345H7.54955ZM24.679 26.7832H22.3975V23.9448H24.634C24.8209 23.9404 25.007 23.973 25.1813 24.041C25.3556 24.1089 25.5147 24.2108 25.6496 24.3407C25.7844 24.4705 25.8922 24.6259 25.9668 24.7977C26.0414 24.9696 26.0813 25.1545 26.0842 25.3419C26.0871 25.5293 26.0529 25.7154 25.9836 25.8895C25.9144 26.0636 25.8114 26.2222 25.6806 26.3562C25.5499 26.4902 25.3939 26.5969 25.2218 26.6702C25.0497 26.7435 24.8647 26.7819 24.6777 26.7832H24.679ZM24.2043 21.7355H22.408V19.2561H24.2017C24.3691 19.25 24.536 19.2773 24.6927 19.3366C24.8494 19.3959 24.9927 19.486 25.1143 19.6015C25.2358 19.7169 25.3331 19.8556 25.4005 20.0092C25.4679 20.1629 25.504 20.3284 25.5068 20.4962C25.4969 20.8332 25.3545 21.1527 25.1105 21.3848C24.8665 21.617 24.5407 21.743 24.2043 21.7355Z" fill="#F2F8FF"/>
<path d="M2.14725 37.821V8.17897C2.15049 6.19648 2.87173 4.28254 4.17702 2.79264C5.4823 1.30274 7.2829 0.338154 9.2444 0.0780291C8.88607 0.0275537 8.52474 0.00148376 8.16289 0C5.99863 0.0022049 3.92365 0.864623 2.39329 2.398C0.862923 3.93138 0.00220057 6.01045 0 8.17897V37.821C0.00219996 39.9893 0.862743 42.0682 2.39282 43.6015C3.9229 45.1349 5.99755 45.9974 8.16158 46C8.52343 45.999 8.88478 45.9731 9.24308 45.9224C7.28172 45.6621 5.48132 44.6973 4.17627 43.2073C2.87123 41.7174 2.15025 39.8034 2.14725 37.821Z" fill="#F2F8FF"/>
<path d="M63.2642 25.6202C63.2791 26.1188 63.183 26.6144 62.9828 27.0711C62.7827 27.5278 62.4835 27.9341 62.1071 28.2605C61.3128 28.9481 60.2893 29.3112 59.2401 29.2775H54.0059V16.789H58.8857C59.9097 16.7579 60.9077 17.1146 61.6809 17.788C62.052 18.1023 62.3471 18.4968 62.5441 18.9418C62.7411 19.3868 62.8349 19.8707 62.8184 20.3572C62.8338 20.8204 62.7441 21.2811 62.556 21.7045C62.3679 22.1279 62.0864 22.503 61.7326 22.8016C62.2157 23.0917 62.6125 23.5061 62.8818 24.0017C63.1511 24.4974 63.2832 25.0562 63.2642 25.6202ZM56.8544 19.4652V21.6772H58.8857C59.1785 21.6772 59.4592 21.5606 59.6663 21.3532C59.8733 21.1458 59.9896 20.8645 59.9896 20.5712C59.9896 20.2778 59.8733 19.9965 59.6663 19.7891C59.4592 19.5817 59.1785 19.4652 58.8857 19.4652H56.8544ZM59.2406 26.6013C59.557 26.6013 59.8604 26.4753 60.0842 26.2512C60.3079 26.027 60.4336 25.7229 60.4336 25.4059C60.4336 25.0888 60.3079 24.7848 60.0842 24.5606C59.8604 24.3364 59.557 24.2105 59.2406 24.2105H56.8544V26.6013H59.2406Z" fill="#F2F8FF"/>
<path d="M72.6117 29.2786L71.9891 27.3165H67.3595L66.7361 29.2786H63.6198L67.8583 16.7887H71.4895L75.7267 29.2772L72.6117 29.2786ZM68.784 15.898C68.784 14.7924 69.0509 14.5776 69.5671 14.3457C69.5671 14.3457 69.834 14.2033 69.8165 14.2208C69.8878 14.1494 69.9587 14.1143 69.9587 14.0069C69.9587 13.9192 69.834 13.8285 69.6918 13.8285C69.5356 13.8246 69.3818 13.8687 69.2513 13.9549C69.1208 14.0411 69.0197 14.1653 68.9616 14.3107L67.3595 13.7202C67.8408 12.7747 68.5526 12.3823 69.7273 12.3823C70.9921 12.3823 71.7927 12.9355 71.7927 13.8986C71.8085 14.1788 71.7409 14.4573 71.5983 14.6988C71.4558 14.9403 71.2447 15.1339 70.9921 15.2549C70.7602 15.3623 70.5983 15.4688 70.6535 15.8971L68.784 15.898ZM68.2153 24.6398H71.1351L69.6752 20.0545L68.2153 24.6398Z" fill="#F2F8FF"/>
<path d="M82.7429 29.5282C81.8906 29.5436 81.0439 29.3855 80.2543 29.0634C79.4647 28.7414 78.7485 28.2621 78.1492 27.6546C77.5329 27.0569 77.0469 26.3376 76.7221 25.5422C76.3972 24.7468 76.2405 23.8926 76.2618 23.0334C76.2406 22.1744 76.3974 21.3203 76.7222 20.525C77.0471 19.7298 77.5329 19.0107 78.1492 18.4131C79.3778 17.2119 81.0264 16.5396 82.7429 16.5396C84.4595 16.5396 86.1081 17.2119 87.3367 18.4131C87.9531 19.0106 88.4391 19.7297 88.7641 20.5249C89.089 21.3202 89.2458 22.1743 89.2245 23.0334C89.2459 23.8926 89.0891 24.7469 88.7642 25.5423C88.4393 26.3378 87.9532 27.057 87.3367 27.6546C86.7374 28.2621 86.0212 28.7414 85.2316 29.0634C84.442 29.3855 83.5953 29.5436 82.7429 29.5282ZM82.7429 26.745C83.221 26.759 83.6969 26.6743 84.1409 26.4963C84.5849 26.3182 84.9877 26.0506 85.3242 25.7101C85.9995 24.9832 86.3749 24.0271 86.3749 23.0341C86.3749 22.041 85.9995 21.0849 85.3242 20.3581C84.9877 20.0175 84.5849 19.7499 84.1409 19.5719C83.6969 19.3938 83.221 19.3091 82.7429 19.3231C82.2622 19.3091 81.7836 19.3937 81.3367 19.5716C80.8897 19.7496 80.4838 20.0172 80.1438 20.3581C79.7987 20.7097 79.5291 21.1283 79.3515 21.5881C79.1739 22.048 79.092 22.5394 79.1108 23.0321C79.0917 23.5252 79.1734 24.017 79.3511 24.4772C79.5287 24.9375 79.7985 25.3564 80.1438 25.7083C80.4836 26.0495 80.8895 26.3174 81.3365 26.4957C81.7834 26.674 82.2621 26.7588 82.7429 26.745Z" fill="#F2F8FF"/>
<path d="M102.044 16.7891H104.892V29.2776H102.044V24.3179H98.1266V29.2776H95.2781V16.7891H98.1266V21.572H102.044L102.044 16.7891Z" fill="#F2F8FF"/>
<path d="M107.028 16.7891H109.875V29.2776H107.026L107.028 16.7891Z" fill="#F2F8FF"/>
<path d="M114.862 26.5281H119.848V29.2758H112.013V16.789H119.757V19.5367H114.862V21.6062H119.314V24.3179H114.862V26.5281ZM115.806 14.9694L115.219 15.8974H112.812L114.575 13.3987H117.014L118.777 15.8974H116.374L115.806 14.9694ZM117.889 14.0953C117.889 13.0608 118.138 12.8648 118.619 12.6487C118.619 12.6487 118.867 12.5062 118.85 12.5238C118.903 12.4523 118.974 12.4361 118.974 12.3274C118.974 12.2397 118.867 12.1674 118.725 12.1674C118.58 12.1606 118.436 12.2001 118.315 12.2802C118.193 12.3603 118.1 12.4769 118.049 12.6132L116.554 12.0622C116.75 11.652 117.066 11.312 117.461 11.0885C117.856 10.8651 118.31 10.769 118.762 10.8133C119.937 10.8133 120.687 11.3305 120.687 12.223C120.702 12.4848 120.64 12.7452 120.506 12.9708C120.373 13.1965 120.176 13.3771 119.939 13.4895C119.725 13.5969 119.583 13.6854 119.618 14.0957L117.889 14.0953Z" fill="#F2F8FF"/>
<path d="M133.914 16.7891V29.2776H131.065V22.0161L127.841 27.3146H127.52L124.298 22.0161V29.2776H121.449V16.7891H124.298L127.681 22.3379L131.064 16.7891H133.914Z" fill="#F2F8FF"/>
<path d="M143.493 29.2776L139.432 16.7891H142.549L145.309 25.9767L148.068 16.7891H151.185L147.125 29.2776H143.493Z" fill="#F2F8FF"/>
<path d="M152.252 16.7891H155.1V29.2776H152.251L152.252 16.7891Z" fill="#F2F8FF"/>
<path d="M160.086 26.5299H165.073V29.2776H157.237V16.7891H164.981V19.5367H160.086V21.6062H164.537V24.3179H160.086V26.5299Z" fill="#F2F8FF"/>
<path d="M175.043 16.7891V19.5367H171.838V29.2776H168.988V19.5367H165.783V16.7891H175.043Z" fill="#F2F8FF"/>
<path d="M176.288 16.7891H179.138V29.2776H176.288V16.7891Z" fill="#F2F8FF"/>
<path d="M188.218 16.7891H191.067V29.2776H188.93L184.123 22.4983V29.2776H181.273V16.7891H183.41L188.218 23.5688L188.218 16.7891Z" fill="#F2F8FF"/>
<path d="M202.46 25.6202C202.475 26.1188 202.379 26.6144 202.179 27.0711C201.979 27.5278 201.68 27.9341 201.303 28.2605C200.509 28.948 199.485 29.3111 198.436 29.2775H193.203V16.789H198.082C199.106 16.7579 200.104 17.1146 200.877 17.788C201.248 18.1024 201.543 18.4969 201.74 18.9419C201.937 19.3868 202.031 19.8707 202.015 20.3572C202.03 20.82 201.94 21.2803 201.752 21.7032C201.564 22.1262 201.283 22.501 200.929 22.7994C201.413 23.0897 201.809 23.5045 202.079 24.0006C202.348 24.4966 202.48 25.0559 202.46 25.6202ZM196.052 19.4652V21.6772H198.082C198.375 21.6772 198.655 21.5606 198.862 21.3532C199.069 21.1458 199.186 20.8645 199.186 20.5712C199.186 20.2778 199.069 19.9965 198.862 19.7891C198.655 19.5817 198.375 19.4652 198.082 19.4652H196.052ZM198.438 26.6013C198.754 26.6013 199.057 26.4753 199.281 26.2512C199.505 26.027 199.631 25.7229 199.631 25.4059C199.631 25.0888 199.505 24.7848 199.281 24.5606C199.057 24.3364 198.754 24.2105 198.438 24.2105H196.052V26.6013H198.438Z" fill="#F2F8FF"/>
<path d="M211.809 29.2776L211.186 27.3146H206.557L205.936 29.2776H202.82L207.058 16.7891H210.689L214.927 29.2776H211.809ZM207.411 24.6406H210.332L208.872 20.0553L207.411 24.6406Z" fill="#F2F8FF"/>
<path d="M222.938 16.7891H225.786V29.2776H223.65L218.842 22.4983V29.2776H215.993V16.7891H218.13L222.938 23.5688V16.7891Z" fill="#F2F8FF"/>
<path d="M238 29.2776H234.76L230.771 23.4973V29.2776H227.923V16.7891H230.771V22.2129L234.582 16.7891H237.822L233.622 22.8727L238 29.2776Z" fill="#F2F8FF"/>
</svg>
