<svg width="24" height="24" viewBox="0 0 24 24" fill="none" xmlns="http://www.w3.org/2000/svg">
<path d="M16.0033 13.8618L16.4916 10.4436H13.1548V8.24613C13.1548 7.26949 13.6431 6.37425 15.1081 6.37425H16.5731V3.44434C16.5731 3.44434 15.1895 3.2002 13.8873 3.2002C11.2015 3.2002 9.41099 4.82791 9.41099 7.8392V10.4436H6.39966V13.8618H9.41099V21.919H13.1548V13.8618H16.0033Z" fill="white" fill-opacity="0.8"/>
</svg>
